http://localhost:8080/v1/articles                            GET
http://localhost:8080/v1/articles/available                  GET
http://localhost:8080/v1/article/{reference}                 GET
http://localhost:8080/v1/article                             POST
http://localhost:8080/v1/article                             PUT
http://localhost:8080/v1/article/{reference}                 DELETE
http://localhost:8080/v1/payment/basket                      GET
http://localhost:8080/v1/payment/basket                      DELETE
http://localhost:8080/v1/payment/cost                        GET
http://localhost:8080/v1/payment/confirmation                POST
http://localhost:8080/v1/payment/basket/article              POST
http://localhost:8080/v1/payment/basket/article              PUT
http://localhost:8080/v1/payment/basket/article              DELETE
http://localhost:8080/v1/payment/basket/available            GET
http://localhost:8080/v1/users/login                         DEPRECATED
http://localhost:8080/v1/users/sign-up                       POST
http://localhost:8080/v1/login                               POST
